{
    "title": "Water SkyBall 2017 - Középdöntő",
    "friendlyDashboardName": "Water SkyBall 2017 - Középdöntő",
    "titleVisible": true,

    "layout": {
        "title": "WSB Középdöntő",
        "friendlyDashboardName": "Water SkyBall 2017 - Középdöntő",
        "gridSize": {
            "columns": 6,
            "rows": 10
        },
        "widgets": [
            {
                "row": 1,
                "col": 1,
                "width": 3,
                "height": 5,
                "widget": "skyball2017_live_matches",
                "job": "skyball2017_live_stats",
                "config": "skyball2017_live_matches_current"
            },
            {
                "row": 1,
                "col": 4,
                "width": 3,
                "height": 5,
                "widget": "skyball2017_live_ranks",
                "job": "skyball2017_live_stats",
                "config": "skyball2017_live_tabella"
            },
            {
                "row": 6,
                "col": 1,
                "width": 3,
                "height": 4,
                "widget": "skyball2017_live_matches",
                "job": "skyball2017_live_stats",
                "config": "skyball2017_live_matches_nd"
            },
            {
                "row": 6,
                "col": 4,
                "width": 3,
                "height": 4,
                "widget": "skyball2017_live_advances",
                "job": "skyball2017_live_stats",
                "config": "skyball2017_live_advances_nd"
            },
            {
                "width": 0,
                "height": 0,
                "widget": "skyball2017_time",
                "job": "skyball2017_time",
                "config": "skyball2017_time"
            }
        ]
    },

    "config": {
        "skyball2017_time": {
            "interval": 60000
        },
        "skyball2017_live_matches_current": {
            "interval": 10000,
            "widgetTitle": "Mérkőzések",
            "type": "KD.games",
            "setTitle": true
        },
        "skyball2017_live_tabella": {
            "interval": 10000,
            "widgetTitle": "Tabella aktuális állása",
            "type": "KD.t",
            "line": 4,
            "notit": true
        },
        "skyball2017_live_matches_nd": {
            "interval": 10000,
            "widgetTitle": "Negyeddöntő mérkőzések alakulása",
            "type": "KD.NDm"
        },
        "skyball2017_live_advances_nd": {
            "interval": 10000,
            "widgetTitle": "Negyeddöntő sorrend",
            "type": "KD.NDs",
            "notit": true
        }
    }
}
