{
    "title": "Water SkyBall 2017 - Előselejtező",
    "friendlyDashboardName": "Water SkyBall 2017 - Előselejtező",
    "titleVisible": true,

    "layout": {
        "title": "WSB Előselejtező",
        "friendlyDashboardName": "Water SkyBall 2017 - Előselejtező",
        "gridSize": {
            "columns": 6,
            "rows": 12
        },
        "widgets": [
            {
                "row": 1,
                "col": 1,
                "width": 3,
                "height": 7,
                "widget": "skyball2017_live_matches",
                "job": "skyball2017_live_stats",
                "config": "skyball2017_live_matches_current"
            },
            {
                "row": 1,
                "col": 4,
                "width": 3,
                "height": 7,
                "widget": "skyball2017_live_ranks",
                "job": "skyball2017_live_stats",
                "config": "skyball2017_live_ranks_es"
            },
            {
                "row": 8,
                "col": 1,
                "width": 3,
                "height": 4,
                "widget": "skyball2017_live_advances",
                "job": "skyball2017_live_stats",
                "config": "skyball2017_live_advances_winners"
            },
            {
                "row": 8,
                "col": 4,
                "width": 3,
                "height": 4,
                "widget": "skyball2017_live_advances",
                "job": "skyball2017_live_stats",
                "config": "skyball2017_live_advances_losers"
            },
            {
                "width": 0,
                "height": 0,
                "widget": "skyball2017_time",
                "job": "skyball2017_time",
                "config": "skyball2017_time"
            }
        ]
    },

    "config": {
        "skyball2017_time": {
            "interval": 60000
        },
        "skyball2017_live_matches_current": {
            "interval": 10000,
            "widgetTitle": "Mérkőzések",
            "type": "ES.games",
            "setTitle": true
        },
        "skyball2017_live_ranks_es": {
            "interval": 10000,
            "widgetTitle": "Sorrend",
            "type": "ES.ESs",
            "notit": true,
            "line": 4
        },
        "skyball2017_live_advances_winners": {
            "interval": 10000,
            "widgetTitle": "Továbbjutók",
            "type": "ES.ESw"
        },
        "skyball2017_live_advances_losers": {
            "interval": 10000,
            "widgetTitle": "Kiesettek",
            "type": "ES.ESl"
        }
    }
}
